…
```r
# primjenite funkciju `augment` nad linearnim modelom `linMod`
# rezultantni podatkovni okvir pohranite u varijablu `predikcije`


# proučite prvih nekoliko redaka okvira `predikcije`
predikcijaDetaljno <- augment(linMod)

predikcijaDetaljno
```

```
## # A tibble: 100 × 8
##       y1     x .fitted .resid   .hat .sigma  .cooksd .std.resid
##    <dbl> <dbl>   <dbl>  <dbl>  <dbl>  <dbl>    <dbl>      <dbl>
##  1  380.  77.1    355.  25.4  0.0184   26.4 0.00887       0.972
##  2  296.  63.3    300.  -3.54 0.0120   26.5 0.000111     -0.135
##  3  439.  86.7    393.  45.2  0.0256   26.1 0.0396        1.74 
##  4  325.  67.8    318.   6.88 0.0136   26.5 0.000475      0.263
##  5  479.  94.5    425.  54.6  0.0330   25.9 0.0757        2.11 
##  6  160.  24.5    145.  15.2  0.0179   26.4 0.00310       0.583
##  7  267.  58.6    281. -14.1  0.0108   26.4 0.00158      -0.538
##  8  194.  32.1    175.  19.2  0.0139   26.4 0.00382       0.736
##  9  372.  71.0    331.  41.0  0.0150   26.2 0.0187        1.57 
## 10  201.  42.4    216. -15.8  0.0107   26.4 0.00198      -0.604
## # ℹ 90 more rows
```
…
